{
    "Version": "2012-10-17",
    "Statement": [
        {
            "Sid":"AllowGroupToSeeBucketListInTheConsole",
            "Effect": "Allow",
            "Action": [
                "s3:GetBucketLocation",
                "s3:ListAllMyBuckets"

            ],
            "Resource": [
                "arn:aws:s3:::*"

            ]

        },
        {
            "Sid":"AllowListingInBucket",
            "Effect": "Allow",
            "Action": [
                "s3:ListBucket"

            ],
            "Resource": [
                "arn:aws:s3:::mybucket/*"

            ]

        },
        {
            "Sid":"AllowReadWriteInBucket",
            "Effect": "Allow",
            "Action": [
                "s3:PutObject",
                "s3:GetObject",
                "s3:DeleteObject"
            ],
            "Resource": [
                "arn:aws:s3:::mybucket/*"

            ]

        }

    ]

}
